1,AngularJS 1.0,No," UI, Front End",Framework,UI,TRUE
2,c,No,Backend,Programming Language,Programming Language,TRUE
3,AngularJS 2.0,No," UI, Front End",Framework,UI,TRUE
4,C++,No," UI, Front End, Backend",Programming Language,Programming Language,TRUE
5,Asp.Net,No,Web Application,Programming Language,Programming Language,TRUE
6,Apache Camel,No,Messaging,Framework,Messaging,TRUE
7,JMeter,No,Web Testing,Tools,Testing,TRUE
8,JavaScript,No," UI, Front End",Programming Language,UI,TRUE
9,Microsoft SQL Server,No,Database,Programming Language,database,TRUE
10,Android,No,Mobile,Programming Language,mobile,TRUE
11,DB/SQL,No,Database,Platform,database,TRUE
12,C#,No," UI, Front End, Backend",Programming Language,Programming Language,TRUE
13,Backbone JS,No," UI, Front End",Framework,UI,TRUE
14,J2EE,No,Web Application,Platform,Web application,TRUE
15,Selenium,No,"Web Application , Testing",Framework,Testing,TRUE
16,CSS3,No," UI, Front End",Programming Language,UI,TRUE
17,Cucumber,No,Web Testing,Tools,Testing,TRUE
18,Hibernate,No, ORM,Framework,ORM,TRUE
19,Hadoop,Yes,Big Data,Framework,Big Data,TRUE
20,Oracle,No,Database,Programming Language,database,TRUE
21,CXF,No,Webservices,Framework,web service,TRUE
22,Selenium TestNG,No,Web  Testing,Framework,testing,TRUE
23,Objective C,No,Mobile,Programming Language,mobile,TRUE
24,Ruby on Rails,No,Web Application,Framework,Programming Language,TRUE
25,Hive,No,Big Data,Framework,Big Data,TRUE
26,sql,No,Database,Platform,Database,TRUE
27,Groovy,No,"UI, Front End, Backend",Programming Language,Programming Language,TRUE
28,Grails,No,Web Application,Framework,Web Application,TRUE
29,HTML5,No,"UI, Front End",Programming Language,UI,TRUE
30,LoadRunner,No,Web Testing,Tools,Testing,TRUE
31,Python,No," UI, Front End, Backend",Programming Language,Programming Language,TRUE
32,Imbus test bench,No,Web Testing,Tools,Testing,TRUE
33,SoapUI,No,Web Testing,Tools,Testing,TRUE
34,Test NG/JUNIT,No,Web  Testing,Framework,Testing,TRUE
35,Mongo DB,No,Database,Platform,database,TRUE
36,JSP,No," UI, Front End",Programming Language,UI,TRUE
37,Scala,No," UI, Front End, Backend",Programming Language,Programming Language,TRUE
38,SASS,No,,Programming Language,UI,FALSE
39,JQuery,No,"UI, Front End",,UI,TRUE
40,Spring,No, Web Application,Framework,Web Application,TRUE
41,Oracle BI Publisher,No,Database,Platform,Database,TRUE
42,MSBI,Yes,BI,Tools,BI ,TRUE
43,Reporting tools,No,,Tools,Others,FALSE
44,Swagger,No,Web services,Framework,web service,TRUE
45,Aws Aurora,Yes,Database,Platform,Database,TRUE
46,SQL Server,No,Database,Platform,Database,TRUE
47,Appium,No,Mobile,Framework,Mobile,TRUE
48,Burpsuite,No,Web Testing,Tools,Testing,TRUE
49,AWS S3,Yes,Cloud,Platform,Cloud,TRUE
50,MFC,No,Desktop,,Others,TRUE
51,PHP,No,"UI, Front End, Backend",Programming Language,Programming Language,TRUE
52,Springboot,No,Web Application,Framework,Web application,TRUE
53,Perl,No,,Programming Language,Programming Language,FALSE
54,Node.js,No, Web Application,Platform,UI,TRUE
55,Knockout.js,No," UI, Front End",Framework,UI,TRUE
56,VB.Net,No," UI, Front End, Backend",Programming Language,UI,TRUE
57,Spark,Yes,Big Data,Framework,Big Data,TRUE
58,Silk Test (Automation tool),No,,Tools,Testing,FALSE
59,AWS,Yes,Cloud,Platform,Cloud,TRUE
60,QTP,No,,Tools,Testing,FALSE
61,VC++,No,"UI, Front End, Backend",Platform,UI,TRUE
62,Nginx,No, Web Server,Framework,Servers,TRUE
63,LESS,No,"UI, Front End",Programming Language,UI,TRUE
64,RFT,No,web Testing,Tools,Testing,TRUE
65,HP ALM ,No,Web Testing,Tools,Testing,TRUE
66,Redshift,No,"Cloud,Data Warehouse",Platform,datawarehousing,TRUE
67,xslt,No,Web services,Programming Language,web service,TRUE
68,Hibernate,No,ORM,Framework,ORM,TRUE
69,Dropwizard,No,Web services,Framework,web service,TRUE
70,MySQL,No,Database,Platform,Database,TRUE
71,Spring Batch,No, Batch,Framework,Web Application,TRUE
72,EXTJs,No,"UI, Front End",Framework,UI,TRUE
73,CouchBase,No,Database,Platform,Database,TRUE
74,Sencha Touch 2,No," UI, Front End",Framework,Mobile,TRUE
75,Typescript,No,"UI, Front End",Programming Language,UI,TRUE
76,Sqoop,Yes,Big Data,Tools,Big Data,TRUE
77,Ember JS,No," UI, Front End",Framework,UI,TRUE
78,Postgres,No,Database,Platform,Database,TRUE
79,Crystal Reports,No,BI,Tools,BI ,TRUE
80,ionic hybrid development,No,mobile,Framework,Mobile,TRUE
81,nightwatch.js,No," UI, Front End",Framework,UI,TRUE
82,Jasper Reports,No,Web  Reporting,Tools,web reporting,TRUE
83,Spring,No,Web Application,Framework,Web Application,TRUE
84,PIG,Yes,Big Data,Framework,Big Data,TRUE
85,Ruby on Rails,No, Web Application,Framework,Programming Language,TRUE
86,Appium for Android,No,Mobile,Framework,Mobile,TRUE
87,NUnit,No,Web Testing,Framework,Testing,TRUE
88,CORDOVA,No,Mobile,Framework,Mobile,TRUE
89,Asp.net Web API ,No,Web services,Framework,web service,TRUE
90,ColdFusion,No,Web Application,Platform,Web Application,TRUE
91,Spring Batch ,No,,Framework,Web Application,FALSE
92,Blockchain,Yes,Others,Techniques,Others,TRUE
93,LINQ,No, ORM,Programming Language,ORM,TRUE
94,BIRT,Yes,BI,Platform,BI ,TRUE
95,xml,No, Web services,Programming Language,web service,TRUE
96,Ionic,No,Mobile,Framework,Mobile,TRUE
97,Classic ASP,No,Web Application,Framework,Web application,TRUE
98,Struts2,No, Web Application,framework,Web application,TRUE
99,kotlin,No,Mobile,Programming Language,Mobile,TRUE
100,Ajax,No,"Web services, Front end",Tools/Framework,UI,TRUE
101,Oracle ADF,No,Web Application,Framework,Web application,TRUE
102,Apache Kafka,Yes,,Platform,Big Data,FALSE
103,Perfecto,No,Web Testing,Platform,Testing,TRUE
104,Oracle Apex,No,Web Application,Platform,Web Application,TRUE
105,SSAS,No,Database,Tools,Database,TRUE
106,SSIS,No,ETL,Tools,ETL,TRUE
107,RDS,Yes,Database,Platform,Database,TRUE
108,Qt,No,Testing,Tools,Testing,TRUE
109,Bootstrap,No," UI, Front end",Framework,UI,TRUE
110,AWS Redshift,Yes,"Cloud, Datawarehouse",Platform,Datawarehousing,TRUE
111,UFT,No,Testing,Tools,testing,TRUE
112,VB,No," UI, Front End, Backend",Programming Language,UI,TRUE
113,Spock,No,Web Testing,Framework,testing,TRUE
114,Unix Shell scripting,No, Configuration,Programming Language,Programming Language,TRUE
115,Mule ESB,No,,Platform,Others,FALSE
116,Agile JIRA (Expert),No,,Technology,Others,FALSE
117,HBase,Yes,Big Data,Framework,Big Data,TRUE
118,Agile-Scrum,No,,Technology,Others,FALSE
119,Ansible,No,Configuration/Devops,Framework,Configuration,TRUE
120,R,No,,Programming Language,Programming Language,FALSE
121,Vue.js,No," UI, Front end",Framework,UI,TRUE
122,shell script,No,Configuration,Programming Language,Programming Language,TRUE
123,XAML,No,Web services,Programming Language,Web service,TRUE
124,Geb,No,Web Testing,Tools,Testing,TRUE
125,Spring AOP ,No, Web Application,Framework,Web Application,TRUE
126,HTML,No," UI, Front end",Programming Language,UI,TRUE
127,xslt,No,Web services,Programming Language,web service,TRUE
128,Electron,No, Web Application,Framework,web application,TRUE
129,My SQL,No,Database,Platform,Database,TRUE
130,Apache Storm,Yes,,Framework,Big Data,FALSE
131,Apache Solr,Yes,,Platform,Big Data,FALSE
132,ETL ,No,"ETL, Datawarehousing",Techniques,ETL,TRUE
133,NoSQL,No,Database,Framework,Database,TRUE
134,Mule,No,,Framework,Others,FALSE
135,AWS IoT,Yes,Cloud,Platform,Cloud,TRUE
136,Silk Central,No,,Tools,Others,FALSE
137,qlikview,Yes,BI,Platform,BI ,TRUE
138,Oracle APEX,No,Database,Platform,Database,TRUE
139,TestNG,No,Web Testing,Framework,Testing,TRUE
140,DynamoDb,Yes,"Database,Cloud",Platform,Database,TRUE
141,Terraform,No,,Tools,Others,FALSE
142,bulma.css,No," UI, Front End",Framework,UI,TRUE
143,Ionic Framework,No,Mobile,Framework,Mobile,TRUE
144,Spock,No,,Framework,Testing,FALSE
145,.NET Core,No,,Framework,Others,FALSE
146,xpath,No,Web services,Programming Language,web service,TRUE
147,Loopback,No,,Framework,Others,FALSE
148,Go language,No,,Programming Language,Programming Language,FALSE
149,EclipseLink,No,ORM,Framework,ORM,TRUE
150,AWS Lambda,Yes,Cloud,Platform,Cloud,TRUE
151,Firebase,No,Web Application,Platform,Web application,TRUE
152,Chef,No,Configuration/Devops,Tools,Configuration,TRUE
153,Analytics testing,Yes,Others,Techniques,Others,TRUE
154,Gatling,No,Web Testing,Framework,Testing,TRUE
155,springwebflow,No,Web Application,Platform,Web Application,TRUE
156,SQL Plus,No,Database,Platform,Database,TRUE
157,H2,No,Database,Platform,Database,TRUE
158,AWS Congito,Yes,Cloud,Platform,Cloud,TRUE
159,Test Director,No,Web Testing,Tools,Testing,TRUE
160,Drupal,No, Web Application,Framework,Web Application,TRUE
161,Spock test framewrok,No,Web Testing,Framework,Testing,TRUE
162,svn,No,Configuration,Framework,Configuration,TRUE
163,Require js,No," UI, Front end",Framework,UI,TRUE
164,AWS DynamoDB,Yes,"Database,Cloud",Platform,Database,TRUE
165,Google Analytics,No,Web,Platform,Others,TRUE
166,Gauge,No,Testing,Tools,Testing,TRUE
167,Spring WebFlow,No,Web Application,Framework,Web Application,TRUE
168,Webpack JS,No," UI, Front end",Tools,UI,TRUE
169,AWS IAM,Yes,Cloud,Platform,Cloud,TRUE
170,Spring MVC,No,Web Application,Framework,Web Application,TRUE
171,Gulp JS,No," UI, Front end",Tools,UI,TRUE
172,AWS MobileHub,Yes,Cloud,Platform,Cloud,TRUE
173,Webpack2,No," UI, Front end",Tools,UI,TRUE
174,Tomcat,No,Web Server,Framework,Servers,TRUE
175,Mocha Js,No,,Framework,UI,FALSE
176,WebSphere,No,Web Server,Framework,Servers,TRUE
177,Jetty (WebServer),No,Web Server,,Servers,TRUE
178,Sinon JS,No,,Framework,UI,FALSE
179,Istanbul JS,No,,Tools,UI,FALSE
180,WDIO JS,No,,Framework,UI,FALSE
181,Java 9,No," UI, Front End, Backend",Programming Language,Programming Language,TRUE
182,Apache ActiveMQ,No,Web Server,,Messaging,TRUE
183,Kubernetes,Yes,Configuration/Devops,Framework,Configuration,TRUE
184,Pentaho,Yes,BI,Tools,BI ,TRUE
185,Microsoft Power BI,Yes,BI,Tools,BI ,TRUE
186,TIBCO Spotfire,Yes,BI,Tools,BI ,TRUE
187,Tableau,Yes,BI,Tools,BI ,TRUE
188,AWS Dynamodb,Yes,"Cloud,Database",Platform,Database,TRUE
189,AWS EC2,Yes,"Cloud, Hosting",Platform,Cloud,TRUE
190,Azure,Yes,Cloud,Platform,cloud,TRUE
191,Azure Cloud Vision ,Yes ,"Cloud, Machine Learning",Platform,cloud,TRUE
192,AWS Rekognition,Yes,"Cloud, Machine Learning",Platform,cloud,TRUE
193,Docker,Yes,Configuration/Devops,Framework,Configuration,TRUE
194,AWS Glue,Yes,"Cloud, ETL",Tools,ETL,TRUE
195,Swift,No,Mobile,Framework,Mobile,TRUE
